^C:\USERS\VADYM\DOCUMENTS\UNIVERSITY\YEAR2SEMESTER1\ADVANCED\KAIDALOVSPLAYTREEPROJECT\SPLAYTREECONSOLEINTERACTIVE\SPLAYTREECONSOLEINTERACTIVE\STDAFX.CPP
C:\USERS\VADYM\DOCUMENTS\UNIVERSITY\YEAR2SEMESTER1\ADVANCED\KAIDALOVSPLAYTREEPROJECT\SPLAYTREECONSOLEINTERACTIVE\SPLAYTREECONSOLEINTERACTIVE\DEBUG\SPLAYTREECONSOLEINTERACTIVE.PCH
C:\USERS\VADYM\DOCUMENTS\UNIVERSITY\YEAR2SEMESTER1\ADVANCED\KAIDALOVSPLAYTREEPROJECT\SPLAYTREECONSOLEINTERACTIVE\SPLAYTREECONSOLEINTERACTIVE\DEBUG\VC141.PDB
C:\USERS\VADYM\DOCUMENTS\UNIVERSITY\YEAR2SEMESTER1\ADVANCED\KAIDALOVSPLAYTREEPROJECT\SPLAYTREECONSOLEINTERACTIVE\SPLAYTREECONSOLEINTERACTIVE\DEBUG\VC141.IDB
C:\USERS\VADYM\DOCUMENTS\UNIVERSITY\YEAR2SEMESTER1\ADVANCED\KAIDALOVSPLAYTREEPROJECT\SPLAYTREECONSOLEINTERACTIVE\SPLAYTREECONSOLEINTERACTIVE\DEBUG\STDAFX.OBJ
^C:\USERS\VADYM\DOCUMENTS\UNIVERSITY\YEAR2SEMESTER1\ADVANCED\KAIDALOVSPLAYTREEPROJECT\SPLAYTREECONSOLEINTERACTIVE\SPLAYTREECONSOLEINTERACTIVE\SPLAYTREECONSOLEINTERACTIVE.CPP
C:\USERS\VADYM\DOCUMENTS\UNIVERSITY\YEAR2SEMESTER1\ADVANCED\KAIDALOVSPLAYTREEPROJECT\SPLAYTREECONSOLEINTERACTIVE\SPLAYTREECONSOLEINTERACTIVE\DEBUG\VC141.PDB
C:\USERS\VADYM\DOCUMENTS\UNIVERSITY\YEAR2SEMESTER1\ADVANCED\KAIDALOVSPLAYTREEPROJECT\SPLAYTREECONSOLEINTERACTIVE\SPLAYTREECONSOLEINTERACTIVE\DEBUG\VC141.IDB
C:\USERS\VADYM\DOCUMENTS\UNIVERSITY\YEAR2SEMESTER1\ADVANCED\KAIDALOVSPLAYTREEPROJECT\SPLAYTREECONSOLEINTERACTIVE\SPLAYTREECONSOLEINTERACTIVE\DEBUG\SPLAYTREECONSOLEINTERACTIVE.OBJ
