^C:\Users\Vadym\Documents\University\Year2Semester1\ADVANCED\kaidalovsplaytreeproject\NaiveRealizationConsoleProgram\NaiveRealizationConsoleProgram\NaiveRealizationConsoleProgram.vcxproj
C:\Users\Vadym\Documents\University\Year2Semester1\ADVANCED\kaidalovsplaytreeproject\NaiveRealizationConsoleProgram\Release\NaiveRealizationConsoleProgram.ipdb
C:\Users\Vadym\Documents\University\Year2Semester1\ADVANCED\kaidalovsplaytreeproject\NaiveRealizationConsoleProgram\Release\NaiveRealizationConsoleProgram.iobj
^C:\Users\Vadym\Documents\University\Year2Semester1\ADVANCED\kaidalovsplaytreeproject\NaiveRealizationConsoleProgram\NaiveRealizationConsoleProgram\NaiveRealizationConsoleProgram.vcxproj
C:\Users\Vadym\Documents\University\Year2Semester1\ADVANCED\kaidalovsplaytreeproject\NaiveRealizationConsoleProgram\Release\NaiveRealizationConsoleProgram.ipdb
C:\Users\Vadym\Documents\University\Year2Semester1\ADVANCED\kaidalovsplaytreeproject\NaiveRealizationConsoleProgram\Release\NaiveRealizationConsoleProgram.iobj
